{
  "version": 1,
  "timestamp": 1465414804110,
  "subscriptions": [
    {
      "arn": "e9126059-9eab-4b37-8194-e0d64dfb2045",
      "topicArn": "arn:aws:sns:us-east-1:1465414804035:test1",
      "endpoint": "aws-sqs://queue1?amazonSQSEndpoint=http://sqs:9324&accessKey=&secretKey=",
      "owner": "",
      "protocol": "sqs",
      "subscriptionAttributes": {
        "RawMessageDelivery": "true"
      }
    },
    {
      "arn": "6df4ed2b-a650-4f7c-910a-1a89c7cae5a6",
      "topicArn": "arn:aws:sns:us-east-1:1465414804035:test1",
      "endpoint": "file://tmp?fileName=sns.log",
      "owner": "",
      "protocol": "file"
    }
  ],
  "topics": [
    {
      "arn": "arn:aws:sns:us-east-1:1465414804035:test1",
      "name": "test1"
    }
  ]
}